^C:\SCHOOL SHIT\DISERTATIE\OBDCPPCONSOLE\OBDCONSOLE.CPP|C:\SCHOOL SHIT\DISERTATIE\OBDCPPCONSOLE\OBDMANAGER.CPP
C:\SCHOOL SHIT\DISERTATIE\OBDCPPCONSOLE\DEBUG\VC142.PDB
C:\SCHOOL SHIT\DISERTATIE\OBDCPPCONSOLE\DEBUG\VC142.IDB
C:\SCHOOL SHIT\DISERTATIE\OBDCPPCONSOLE\DEBUG\OBDMANAGER.OBJ
C:\SCHOOL SHIT\DISERTATIE\OBDCPPCONSOLE\DEBUG\OBDCONSOLE.OBJ
^C:\SCHOOL SHIT\DISERTATIE\OBDCPPCONSOLE\OBDCONSOLE.CPP
C:\SCHOOL SHIT\DISERTATIE\OBDCPPCONSOLE\DEBUG\VC142.PDB
^C:\SCHOOL SHIT\DISERTATIE\OBDCPPCONSOLE\OBDMANAGER.CPP
C:\SCHOOL SHIT\DISERTATIE\OBDCPPCONSOLE\DEBUG\VC142.PDB
